<?xml version="1.0" standalone="no"?>
<!DOCTYPE svg PUBLIC "-//W3C//DTD SVG 20010904//EN"
 "http://www.w3.org/TR/2001/REC-SVG-20010904/DTD/svg10.dtd">
<svg version="1.0" xmlns="http://www.w3.org/2000/svg"
 width="270.000000pt" height="270.000000pt" viewBox="0 0 270.000000 270.000000"
 preserveAspectRatio="xMidYMid meet">
<metadata>
Created by potrace 1.14, written by Peter Selinger 2001-2017
</metadata>
<g transform="translate(0.000000,270.000000) scale(0.100000,-0.100000)"
fill="#000000" stroke="none">
<path d="M510 2691 c0 -5 -10 -7 -22 -3 -16 4 -19 2 -13 -9 7 -12 6 -12 -7 -1
-11 9 -18 10 -23 2 -3 -6 -11 -8 -16 -5 -5 4 -9 2 -9 -4 0 -5 -9 -8 -20 -6
-11 2 -20 -1 -20 -6 0 -6 -4 -7 -10 -4 -5 3 -10 1 -10 -4 0 -6 -3 -10 -7 -9
-15 4 -53 -13 -53 -23 0 -6 -5 -7 -10 -4 -6 3 -13 -1 -16 -10 -4 -9 -13 -14
-20 -11 -8 3 -14 -1 -14 -9 0 -8 -5 -15 -11 -15 -6 0 -30 -19 -53 -42 -22 -24
-45 -42 -51 -40 -5 2 -7 0 -3 -4 5 -4 -4 -22 -18 -41 -14 -18 -21 -33 -17 -33
4 0 4 -4 -2 -8 -16 -12 -45 -69 -38 -76 3 -3 1 -6 -5 -6 -7 0 -11 -3 -11 -7 3
-21 -2 -44 -9 -39 -4 3 -7 -8 -6 -25 1 -16 -2 -29 -7 -29 -6 0 -5 -9 2 -21 6
-12 7 -19 1 -15 -15 9 -13 -1624 2 -1643 8 -11 8 -13 -1 -7 -8 4 -13 1 -13 -9
0 -10 5 -13 12 -9 9 5 9 2 -1 -9 -11 -14 -11 -17 0 -17 12 0 12 -2 0 -9 -8 -5
-9 -10 -3 -12 6 -2 12 -15 14 -29 2 -14 7 -31 11 -37 5 -7 6 -13 2 -13 -3 0 0
-10 7 -22 7 -13 11 -26 10 -30 -1 -5 2 -8 8 -8 5 0 10 -9 10 -21 0 -13 4 -18
12 -13 7 5 9 2 5 -9 -3 -9 0 -18 9 -21 8 -3 14 -13 14 -21 0 -9 5 -13 10 -10
6 3 10 0 10 -7 0 -8 9 -20 20 -28 11 -8 20 -20 20 -27 0 -7 4 -13 10 -13 5 0
19 -9 30 -20 11 -11 20 -18 20 -15 0 4 17 -9 54 -40 6 -5 18 -11 26 -13 8 -2
18 -9 22 -15 6 -9 8 -8 8 1 0 10 4 9 16 -2 25 -25 54 -39 54 -25 0 8 4 9 13 0
8 -6 17 -8 20 -4 4 3 7 2 7 -4 0 -6 13 -9 30 -8 16 1 27 -2 24 -7 -7 -10 35
-6 53 5 8 5 13 4 13 -2 0 -15 33 -14 49 1 11 10 13 10 7 1 -5 -8 -1 -13 9 -13
10 0 13 5 9 12 -5 7 -3 8 7 2 19 -12 32 -12 48 0 11 8 13 8 8 0 -8 -13 97 -14
109 -1 4 4 12 7 18 7 6 0 5 -4 -2 -9 -8 -5 30 -8 90 -7 56 1 109 5 116 9 7 5
12 4 12 -2 0 -6 7 -11 16 -11 9 0 12 5 8 13 -6 10 -4 10 7 0 7 -7 22 -13 34
-13 16 0 17 2 5 10 -9 6 -10 10 -3 10 6 0 14 -4 17 -9 7 -11 25 -9 45 3 9 6
12 5 8 -1 -8 -12 97 -12 109 0 4 4 12 7 18 7 6 0 5 -4 -2 -9 -8 -5 30 -8 90
-7 56 1 109 5 116 9 7 5 12 4 12 -2 0 -6 7 -11 16 -11 9 0 12 5 8 13 -6 10 -4
10 7 0 7 -7 22 -13 34 -13 16 0 17 2 5 10 -9 6 -10 10 -3 10 6 0 14 -4 17 -9
7 -11 25 -9 45 3 9 6 12 5 8 -1 -8 -12 97 -12 109 0 4 4 12 7 18 7 6 0 5 -4
-2 -9 -8 -5 30 -8 90 -7 56 1 109 5 116 9 7 5 12 4 12 -2 0 -6 7 -11 16 -11 9
0 12 5 8 13 -6 9 -5 9 7 0 17 -14 75 -13 98 1 10 6 12 5 7 -2 -10 -16 16 -15
33 1 11 10 13 10 7 0 -8 -14 15 -18 28 -6 7 8 12 9 54 11 13 1 21 6 18 11 -4
5 2 8 11 6 10 -1 30 4 44 11 15 7 29 10 33 7 3 -4 6 -2 6 4 0 6 18 18 39 27
22 8 44 23 50 33 6 10 11 14 11 10 0 -4 21 14 48 41 64 67 81 89 75 96 -4 3
-1 6 5 6 14 0 44 55 35 64 -4 3 -1 6 6 6 7 0 9 5 6 10 -3 6 -1 10 5 10 7 0 10
6 7 14 -3 8 -1 16 4 18 5 2 11 13 12 26 0 12 4 22 8 22 8 0 4 199 -6 225 -5
16 -5 17 4 5 11 -17 8 120 -4 155 -5 16 -5 17 4 5 11 -17 8 120 -4 155 -5 16
-5 17 4 5 11 -17 8 120 -4 155 -6 16 -5 17 4 5 9 -12 11 -8 9 20 -1 19 -6 41
-12 49 -8 11 -8 13 1 8 9 -6 11 39 9 185 -2 106 -6 202 -10 213 -6 16 -6 17 3
5 11 -17 8 120 -4 155 -5 16 -5 17 4 5 11 -17 8 120 -4 155 -5 16 -5 17 4 5
11 -17 8 120 -4 155 -5 15 -4 17 3 6 7 -10 10 8 9 62 -1 42 -6 77 -11 77 -4 0
-6 11 -4 25 3 13 2 22 -2 20 -11 -7 -21 22 -14 40 4 8 2 15 -4 15 -5 0 -15 15
-22 33 -7 17 -23 40 -34 50 -12 10 -15 16 -8 12 11 -6 11 -3 1 13 -7 12 -17
18 -21 16 -4 -3 -8 1 -8 9 0 15 -54 67 -70 67 -5 0 -9 3 -8 8 2 4 -1 8 -5 9
-5 1 -17 11 -26 22 -10 11 -21 18 -25 14 -3 -3 -6 -1 -6 6 0 7 -4 9 -10 6 -5
-3 -10 -1 -10 4 0 6 -7 11 -15 11 -8 0 -15 4 -15 8 0 5 -6 9 -12 10 -32 2 -52
10 -55 19 -2 6 -12 9 -22 6 -11 -3 -32 3 -47 14 -16 10 -25 12 -21 6 10 -16
-5 -17 -21 -1 -9 9 -12 9 -12 0 0 -7 -5 -12 -11 -12 -5 0 -7 5 -4 10 3 6 1 10
-4 10 -6 0 -11 -6 -11 -12 0 -8 -3 -9 -8 -3 -9 13 -154 16 -146 3 4 -6 -3 -5
-14 1 -27 14 -35 14 -26 -1 5 -7 3 -8 -7 -2 -21 13 -39 14 -39 1 0 -8 -3 -8
-8 -2 -9 13 -154 16 -146 3 4 -6 -3 -5 -14 1 -27 14 -35 14 -26 -1 5 -7 3 -8
-7 -2 -21 13 -39 14 -39 1 0 -8 -3 -9 -8 -1 -9 13 -104 13 -114 -1 -5 -6 -8
-6 -8 2 0 13 -47 12 -69 -1 -9 -6 -12 -5 -7 2 8 14 -34 12 -53 -2 -11 -8 -13
-8 -8 1 9 15 -32 14 -52 -1 -11 -8 -13 -8 -8 1 6 9 -13 11 -73 10 -45 -1 -80
-6 -80 -12 0 -6 -3 -6 -8 0 -9 13 -154 16 -146 3 4 -6 -3 -5 -14 1 -27 14 -35
14 -26 -1 5 -7 3 -8 -7 -2 -21 13 -39 14 -39 1 0 -8 -3 -8 -8 -2 -9 13 -154
16 -146 3 4 -6 -3 -5 -14 1 -27 14 -35 14 -26 -1 5 -7 3 -8 -7 -2 -21 13 -39
14 -39 1 0 -8 -3 -8 -8 -2 -9 13 -154 16 -146 3 4 -6 -3 -5 -14 1 -25 13 -42
14 -42 2z"/>
</g>
</svg>
